%YAML 1.1
%TAG !u! tag:unity3d.com,2011:
--- !u!114 &6274082006610053229
MonoBehaviour:
  m_ObjectHideFlags: 0
  m_CorrespondingSourceObject: {fileID: 0}
  m_PrefabInstance: {fileID: 0}
  m_PrefabAsset: {fileID: 0}
  m_GameObject: {fileID: 7168319928864154623}
  m_Enabled: 1
  m_EditorHideFlags: 0
  m_Script: {fileID: 11500000, guid: c1dabb574a099de45b49bb325a771958, type: 3}
  m_Name: 
  m_EditorClassIdentifier: 
  speed: 2
  distance: 2
--- !u!1001 &3793035250987321431
PrefabInstance:
  m_ObjectHideFlags: 0
  serializedVersion: 2
  m_Modification:
    m_TransformParent: {fileID: 0}
    m_Modifications:
    - target: {fileID: 798783888431651233, guid: 14b755c2cce812b44be84152db5ce7ae, type: 3}
      propertyPath: m_Materials.Array.data[0]
      value: 
      objectReference: {fileID: 2100000, guid: 8f0ffd7baca20f647976d7cd330eb1d7, type: 2}
    - target: {fileID: 798783888431651233, guid: 14b755c2cce812b44be84152db5ce7ae, type: 3}
      propertyPath: m_Materials.Array.data[1]
      value: 
      objectReference: {fileID: 2100000, guid: fc102fe09776541439f64affe29f3b4b, type: 2}
    - target: {fileID: 6330211182530489256, guid: 14b755c2cce812b44be84152db5ce7ae, type: 3}
      propertyPath: m_Name
      value: Trampoline_Moving
      objectReference: {fileID: 0}
    - target: {fileID: 6330211182530489257, guid: 14b755c2cce812b44be84152db5ce7ae, type: 3}
      propertyPath: m_RootOrder
      value: 0
      objectReference: {fileID: 0}
    - target: {fileID: 6330211182530489257, guid: 14b755c2cce812b44be84152db5ce7ae, type: 3}
      propertyPath: m_LocalPosition.x
      value: 0
      objectReference: {fileID: 0}
    - target: {fileID: 6330211182530489257, guid: 14b755c2cce812b44be84152db5ce7ae, type: 3}
      propertyPath: m_LocalPosition.y
      value: 0
      objectReference: {fileID: 0}
    - target: {fileID: 6330211182530489257, guid: 14b755c2cce812b44be84152db5ce7ae, type: 3}
      propertyPath: m_LocalPosition.z
      value: 0
      objectReference: {fileID: 0}
    - target: {fileID: 6330211182530489257, guid: 14b755c2cce812b44be84152db5ce7ae, type: 3}
      propertyPath: m_LocalRotation.w
      value: 1
      objectReference: {fileID: 0}
    - target: {fileID: 6330211182530489257, guid: 14b755c2cce812b44be84152db5ce7ae, type: 3}
      propertyPath: m_LocalRotation.x
      value: 0
      objectReference: {fileID: 0}
    - target: {fileID: 6330211182530489257, guid: 14b755c2cce812b44be84152db5ce7ae, type: 3}
      propertyPath: m_LocalRotation.y
      value: 0
      objectReference: {fileID: 0}
    - target: {fileID: 6330211182530489257, guid: 14b755c2cce812b44be84152db5ce7ae, type: 3}
      propertyPath: m_LocalRotation.z
      value: 0
      objectReference: {fileID: 0}
    - target: {fileID: 6330211182530489257, guid: 14b755c2cce812b44be84152db5ce7ae, type: 3}
      propertyPath: m_LocalEulerAnglesHint.x
      value: 0
      objectReference: {fileID: 0}
    - target: {fileID: 6330211182530489257, guid: 14b755c2cce812b44be84152db5ce7ae, type: 3}
      propertyPath: m_LocalEulerAnglesHint.y
      value: 0
      objectReference: {fileID: 0}
    - target: {fileID: 6330211182530489257, guid: 14b755c2cce812b44be84152db5ce7ae, type: 3}
      propertyPath: m_LocalEulerAnglesHint.z
      value: 0
      objectReference: {fileID: 0}
    - target: {fileID: 6330211182530489259, guid: 14b755c2cce812b44be84152db5ce7ae, type: 3}
      propertyPath: m_Constraints
      value: 116
      objectReference: {fileID: 0}
    - target: {fileID: 6330211182530489259, guid: 14b755c2cce812b44be84152db5ce7ae, type: 3}
      propertyPath: m_IsKinematic
      value: 0
      objectReference: {fileID: 0}
    m_RemovedComponents: []
  m_SourcePrefab: {fileID: 100100000, guid: 14b755c2cce812b44be84152db5ce7ae, type: 3}
--- !u!1 &7168319928864154623 stripped
GameObject:
  m_CorrespondingSourceObject: {fileID: 6330211182530489256, guid: 14b755c2cce812b44be84152db5ce7ae, type: 3}
  m_PrefabInstance: {fileID: 3793035250987321431}
  m_PrefabAsset: {fileID: 0}
